{
	"cal":{
		"meetings":"Reuniones",
		"events":"Eventos"
	},
	"contact":{
		"lbl":"Contribuya / Contáctenos",
		"disclaim":"Agradecemos sus comentarios, pero mantenemos su privacidad a salvo. Solo proporcione información de contacto si su mensaje necesita una respuesta."
	},
	"licences":{
		"lbl":"Este trabajo tiene licencia Creative Commons",
		"CC-BY-NC":{
			"nme":"Atribución/Reconocimiento-NoComercial 4.0 Internacional",
			"url":"https://creativecommons.org/licenses/by-nc/4.0/legalcode.es"
		}
	},
	"machine":"Este contenido fue traducido automáticamente. Haga <span class=\"MOContribute C1\"><u>clic aquí</u></span> si desea ayudarnos a corregir errores.",
	"nav":{
		"0":{"url":"cuentos/","lbl":"Cuentos"},
		"1":{"url":"videoteca/","lbl":"Videoteca"},
		"2":{"url":"galeria/","lbl":"Galería"},
		"3":{"url":"recursos.html","lbl":"Recursos"}
	}
}
