{
	"cal":{
		"meetings":"Rencontres",
		"events":"Événements"
	},
	"contact":{
		"lbl":"Contribuez / Contactez-nous",
		"disclaim":"Nous apprécions vos commentaires, mais protégez votre vie privée. Ne fournissez des informations de contact que si votre message nécessite une réponse."
	},
	"licences":{
		"lbl":"Ce travail est sous licence Creative Commons",
		"CC-BY-NC":{
			"nme":"Attribution - Utilisation non commerciale 4.0 International",
			"url":"https://creativecommons.org/licenses/by-nc/4.0/legalcode.fr"
		}
	},
	"machine":"Ce contenu a été traduit automatiquement. <span class=\"MOContribute C1\"><u>Cliquez ici si</u></span> vous souhaitez nous aider à corriger les erreurs.",
	"nav":{
		"0":{"url":"histoires/","lbl":"Histoires"},
		"1":{"url":"videotheque/","lbl":"Vidéothèque"},
		"2":{"url":"galerie/","lbl":"Galerie"},
		"3":{"url":"ressources.html","lbl":"Ressource"}
	}	
}
