{
	"aid": "213",
	"idx": {
		"0": {
			"typ": "txt",
			"lbl": {
				"US": {"en": "Site Section"},
				"ES": {"es": "Sección del sitio"},
				"FR": {"fr": "Section du site"},
				"PT": {"pt": "Seção do Site"},
				"RU": {"ru": "Раздел сайта"},
				"CN": {"zh": "站点部分"}
			}
		},
		"1": {
			"typ": "txt",
			"lbl": {
				"US": {"en": "Category"},
				"ES": {"es": "Categoría"},
				"FR": {"fr": "Catégorie"},
				"PT": {"pt": "Categoria"},
				"RU": {"ru": "Категория"},
				"CN": {"zh": "类别"}
			}
		}
	},
	"flx": {
		"source": {
			"typ": "url",
			"lbl": {
				"US": {"en": "Source URL"},
				"ES": {"es": "URL de origen"},
				"FR": {"fr": "URL source"},
				"PT": {"pt": "URL da fonte"},
				"RU": {"ru": "Исходный URL"},
				"CN": {"zh": "来源网址"}
			}
		},
		"notes": {
			"typ": "txt",
			"lbl": {
				"US": {"en": "Notes"},
				"ES": {"es": "Notas"},
				"FR": {"fr": "Remarques"},
				"PT": {"pt": "Notas"},
				"RU": {"ru": "Ноты"},
				"CN": {"zh": "笔记"}
			}
		}
	}
}